{
  "required": true,
  "package": "quaedam.mixin.forge",
  "compatibilityLevel": "JAVA_17",
  "minVersion": "0.8",
  "client": [
  ],
  "mixins": [
  ],
  "injectors": {
    "defaultRequire": 1
  }
}